{
  "annotations": {
    "list": [
      {
        "builtIn": 1,
        "datasource": {
          "type": "grafana",
          "uid": "-- Grafana --"
        },
        "enable": true,
        "hide": true,
        "iconColor": "rgba(0, 211, 255, 1)",
        "name": "Annotations & Alerts",
        "type": "dashboard"
      }
    ]
  },
  "description": "KPI overview to idntify annomalities.",
  "editable": true,
  "fiscalYearStartMonth": 0,
  "graphTooltip": 1,
  "links": [
    {
      "asDropdown": true,
      "icon": "external link",
      "includeVars": false,
      "keepTime": false,
      "tags": [
        "docker"
      ],
      "targetBlank": false,
      "title": "Docker dashboards",
      "tooltip": "",
      "type": "dashboards",
      "url": ""
    },
    {
      "asDropdown": true,
      "icon": "external link",
      "includeVars": false,
      "keepTime": false,
      "tags": [
        "security"
      ],
      "targetBlank": false,
      "title": "Security Dashboards",
      "tooltip": "",
      "type": "dashboards",
      "url": ""
    }
  ],
  "panels": [
    {
      "datasource": {
        "type": "prometheus",
        "uid": "PBFA97CFB590B2093"
      },
      "description": "Busy state of all CPU cores together",
      "fieldConfig": {
        "defaults": {
          "color": {
            "mode": "thresholds"
          },
          "mappings": [
            {
              "options": {
                "match": "null",
                "result": {
                  "text": "N/A"
                }
              },
              "type": "special"
            }
          ],
          "max": 100,
          "min": 0,
          "thresholds": {
            "mode": "absolute",
            "steps": [
              {
                "color": "green",
                "value": null
              },
              {
                "color": "orange",
                "value": 85
              },
              {
                "color": "red",
                "value": 95
              }
            ]
          },
          "unit": "percent"
        },
        "overrides": []
      },
      "gridPos": {
        "h": 7,
        "w": 2,
        "x": 0,
        "y": 0
      },
      "id": 5,
      "options": {
        "minVizHeight": 75,
        "minVizWidth": 75,
        "orientation": "horizontal",
        "reduceOptions": {
          "calcs": [
            "lastNotNull"
          ],
          "fields": "",
          "values": false
        },
        "showThresholdLabels": false,
        "showThresholdMarkers": true,
        "sizing": "auto",
        "text": {}
      },
      "pluginVersion": "10.4.2",
      "targets": [
        {
          "datasource": {
            "type": "prometheus",
            "uid": "PBFA97CFB590B2093"
          },
          "editorMode": "code",
          "expr": "(\n    (\n        (count(\n            count(node_cpu_seconds_total{job=~\"$prom_job\", instance=\"$node\"}\n        ) by (cpu)\n        )\n    )\n    - avg(sum by (mode)(irate(node_cpu_seconds_total{mode='idle',job=~\"$prom_job\", instance=\"$node\"}[5m])))) * 100)\n    / count(\n        count(node_cpu_seconds_total{job=~\"$prom_job\", instance=\"$node\"}\n    ) by (cpu)\n)\n",
          "hide": false,
          "intervalFactor": 1,
          "legendFormat": "__auto",
          "range": true,
          "refId": "A",
          "step": 900
        }
      ],
      "title": "CPU Busy",
      "type": "gauge"
    },
    {
      "datasource": {
        "type": "prometheus",
        "uid": "PBFA97CFB590B2093"
      },
      "description": "Basic CPU info",
      "fieldConfig": {
        "defaults": {
          "color": {
            "mode": "palette-classic"
          },
          "custom": {
            "axisBorderShow": false,
            "axisCenteredZero": false,
            "axisColorMode": "text",
            "axisLabel": "",
            "axisPlacement": "auto",
            "barAlignment": 0,
            "drawStyle": "line",
            "fillOpacity": 30,
            "gradientMode": "opacity",
            "hideFrom": {
              "legend": false,
              "tooltip": false,
              "viz": false
            },
            "insertNulls": false,
            "lineInterpolation": "smooth",
            "lineWidth": 1,
            "pointSize": 5,
            "scaleDistribution": {
              "type": "linear"
            },
            "showPoints": "never",
            "spanNulls": true,
            "stacking": {
              "group": "A",
              "mode": "normal"
            },
            "thresholdsStyle": {
              "mode": "off"
            }
          },
          "links": [],
          "mappings": [],
          "max": 100,
          "min": 0,
          "thresholds": {
            "mode": "absolute",
            "steps": [
              {
                "color": "green",
                "value": null
              },
              {
                "color": "red",
                "value": 80
              }
            ]
          },
          "unit": "short"
        },
        "overrides": [
          {
            "matcher": {
              "id": "byName",
              "options": "Busy"
            },
            "properties": [
              {
                "id": "color",
                "value": {
                  "fixedColor": "#EAB839",
                  "mode": "fixed"
                }
              }
            ]
          },
          {
            "matcher": {
              "id": "byName",
              "options": "Busy Iowait"
            },
            "properties": [
              {
                "id": "color",
                "value": {
                  "fixedColor": "#890F02",
                  "mode": "fixed"
                }
              }
            ]
          },
          {
            "matcher": {
              "id": "byName",
              "options": "Busy other"
            },
            "properties": [
              {
                "id": "color",
                "value": {
                  "fixedColor": "#1F78C1",
                  "mode": "fixed"
                }
              }
            ]
          },
          {
            "matcher": {
              "id": "byName",
              "options": "Idle"
            },
            "properties": [
              {
                "id": "color",
                "value": {
                  "fixedColor": "#052B51",
                  "mode": "fixed"
                }
              }
            ]
          },
          {
            "matcher": {
              "id": "byName",
              "options": "Idle - Waiting for something to happen"
            },
            "properties": [
              {
                "id": "color",
                "value": {
                  "fixedColor": "#052B51",
                  "mode": "fixed"
                }
              }
            ]
          },
          {
            "matcher": {
              "id": "byName",
              "options": "guest"
            },
            "properties": [
              {
                "id": "color",
                "value": {
                  "fixedColor": "#9AC48A",
                  "mode": "fixed"
                }
              }
            ]
          },
          {
            "matcher": {
              "id": "byName",
              "options": "idle"
            },
            "properties": [
              {
                "id": "color",
                "value": {
                  "fixedColor": "#052B51",
                  "mode": "fixed"
                }
              }
            ]
          },
          {
            "matcher": {
              "id": "byName",
              "options": "iowait"
            },
            "properties": [
              {
                "id": "color",
                "value": {
                  "fixedColor": "#EAB839",
                  "mode": "fixed"
                }
              }
            ]
          },
          {
            "matcher": {
              "id": "byName",
              "options": "irq"
            },
            "properties": [
              {
                "id": "color",
                "value": {
                  "fixedColor": "#BF1B00",
                  "mode": "fixed"
                }
              }
            ]
          },
          {
            "matcher": {
              "id": "byName",
              "options": "nice"
            },
            "properties": [
              {
                "id": "color",
                "value": {
                  "fixedColor": "#C15C17",
                  "mode": "fixed"
                }
              }
            ]
          },
          {
            "matcher": {
              "id": "byName",
              "options": "softirq"
            },
            "properties": [
              {
                "id": "color",
                "value": {
                  "fixedColor": "#E24D42",
                  "mode": "fixed"
                }
              }
            ]
          },
          {
            "matcher": {
              "id": "byName",
              "options": "steal"
            },
            "properties": [
              {
                "id": "color",
                "value": {
                  "fixedColor": "#FCE2DE",
                  "mode": "fixed"
                }
              }
            ]
          },
          {
            "matcher": {
              "id": "byName",
              "options": "system"
            },
            "properties": [
              {
                "id": "color",
                "value": {
                  "fixedColor": "#508642",
                  "mode": "fixed"
                }
              }
            ]
          },
          {
            "matcher": {
              "id": "byName",
              "options": "user"
            },
            "properties": [
              {
                "id": "color",
                "value": {
                  "fixedColor": "#5195CE",
                  "mode": "fixed"
                }
              }
            ]
          },
          {
            "matcher": {
              "id": "byName",
              "options": "Busy Iowait"
            },
            "properties": [
              {
                "id": "color",
                "value": {
                  "fixedColor": "#890F02",
                  "mode": "fixed"
                }
              }
            ]
          },
          {
            "matcher": {
              "id": "byName",
              "options": "Idle"
            },
            "properties": [
              {
                "id": "color",
                "value": {
                  "fixedColor": "#7EB26D",
                  "mode": "fixed"
                }
              }
            ]
          },
          {
            "matcher": {
              "id": "byName",
              "options": "Busy System"
            },
            "properties": [
              {
                "id": "color",
                "value": {
                  "fixedColor": "#EAB839",
                  "mode": "fixed"
                }
              }
            ]
          },
          {
            "matcher": {
              "id": "byName",
              "options": "Busy User"
            },
            "properties": [
              {
                "id": "color",
                "value": {
                  "fixedColor": "#0A437C",
                  "mode": "fixed"
                }
              }
            ]
          },
          {
            "matcher": {
              "id": "byName",
              "options": "Busy Other"
            },
            "properties": [
              {
                "id": "color",
                "value": {
                  "fixedColor": "#6D1F62",
                  "mode": "fixed"
                }
              }
            ]
          }
        ]
      },
      "gridPos": {
        "h": 7,
        "w": 10,
        "x": 2,
        "y": 0
      },
      "id": 7,
      "options": {
        "legend": {
          "calcs": [],
          "displayMode": "list",
          "placement": "bottom",
          "showLegend": true
        },
        "tooltip": {
          "mode": "multi",
          "sort": "none"
        }
      },
      "pluginVersion": "8.1.2",
      "targets": [
        {
          "datasource": {
            "type": "prometheus",
            "uid": "PBFA97CFB590B2093"
          },
          "editorMode": "code",
          "expr": "sum by (instance)(irate(node_cpu_seconds_total{mode=\"system\",job=~\"$prom_job\", instance=~\"$node\"}[5m])) * 100",
          "format": "time_series",
          "hide": false,
          "intervalFactor": 2,
          "legendFormat": "Busy System",
          "range": true,
          "refId": "A",
          "step": 240
        },
        {
          "datasource": {
            "type": "prometheus",
            "uid": "PBFA97CFB590B2093"
          },
          "editorMode": "code",
          "expr": "sum by (instance)(irate(node_cpu_seconds_total{mode='user',job=~\"$prom_job\", instance=~\"$node\"}[5m])) * 100",
          "format": "time_series",
          "hide": false,
          "intervalFactor": 2,
          "legendFormat": "Busy User",
          "range": true,
          "refId": "B",
          "step": 240
        },
        {
          "datasource": {
            "type": "prometheus",
            "uid": "PBFA97CFB590B2093"
          },
          "editorMode": "code",
          "expr": "sum by (instance)(irate(node_cpu_seconds_total{mode='iowait',job=~\"$prom_job\", instance=~\"$node\"}[5m])) * 100",
          "format": "time_series",
          "intervalFactor": 2,
          "legendFormat": "Busy Iowait",
          "range": true,
          "refId": "C",
          "step": 240
        },
        {
          "datasource": {
            "type": "prometheus",
            "uid": "PBFA97CFB590B2093"
          },
          "editorMode": "code",
          "expr": "sum by (instance)(irate(node_cpu_seconds_total{mode=~\".*irq\",job=~\"$prom_job\", instance=~\"$node\"}[5m])) * 100",
          "format": "time_series",
          "intervalFactor": 2,
          "legendFormat": "Busy IRQs",
          "range": true,
          "refId": "D",
          "step": 240
        },
        {
          "datasource": {
            "type": "prometheus",
            "uid": "PBFA97CFB590B2093"
          },
          "editorMode": "code",
          "expr": "sum (irate(node_cpu_seconds_total{mode!='idle',mode!='user',mode!='system',mode!='iowait',mode!='irq',mode!='softirq',job=~\"$prom_job\", instance=~\"$node\"}[5m])) * 100",
          "format": "time_series",
          "intervalFactor": 2,
          "legendFormat": "Busy Other",
          "range": true,
          "refId": "E",
          "step": 240
        },
        {
          "datasource": {
            "type": "prometheus",
            "uid": "PBFA97CFB590B2093"
          },
          "editorMode": "code",
          "expr": "sum by (mode)(irate(node_cpu_seconds_total{mode='idle',job=~\"$prom_job\", instance=~\"$node\"}[5m])) * 100",
          "format": "time_series",
          "intervalFactor": 2,
          "legendFormat": "Idle",
          "range": true,
          "refId": "F",
          "step": 240
        }
      ],
      "title": "CPU Basic",
      "type": "timeseries"
    },
    {
      "datasource": {
        "type": "prometheus",
        "uid": "PBFA97CFB590B2093"
      },
      "fieldConfig": {
        "defaults": {
          "color": {
            "mode": "thresholds"
          },
          "mappings": [],
          "thresholds": {
            "mode": "absolute",
            "steps": [
              {
                "color": "green",
                "value": null
              },
              {
                "color": "red",
                "value": 80
              }
            ]
          }
        },
        "overrides": []
      },
      "gridPos": {
        "h": 7,
        "w": 2,
        "x": 12,
        "y": 0
      },
      "id": 9,
      "options": {
        "colorMode": "value",
        "graphMode": "area",
        "justifyMode": "auto",
        "orientation": "auto",
        "reduceOptions": {
          "calcs": [
            "lastNotNull"
          ],
          "fields": "",
          "values": false
        },
        "showPercentChange": false,
        "textMode": "auto",
        "wideLayout": true
      },
      "pluginVersion": "10.4.2",
      "targets": [
        {
          "datasource": {
            "type": "prometheus",
            "uid": "PBFA97CFB590B2093"
          },
          "editorMode": "code",
          "exemplar": false,
          "expr": "count(container_last_seen{name!=\"\",instance=~\"$node\"})",
          "instant": true,
          "legendFormat": "Count",
          "range": false,
          "refId": "A"
        }
      ],
      "title": "Docker containers",
      "type": "stat"
    },
    {
      "datasource": {
        "type": "prometheus",
        "uid": "PBFA97CFB590B2093"
      },
      "fieldConfig": {
        "defaults": {
          "color": {
            "mode": "palette-classic"
          },
          "custom": {
            "axisBorderShow": false,
            "axisCenteredZero": false,
            "axisColorMode": "text",
            "axisLabel": "",
            "axisPlacement": "auto",
            "barAlignment": 0,
            "drawStyle": "line",
            "fillOpacity": 0,
            "gradientMode": "none",
            "hideFrom": {
              "legend": false,
              "tooltip": false,
              "viz": false
            },
            "insertNulls": false,
            "lineInterpolation": "linear",
            "lineWidth": 1,
            "pointSize": 5,
            "scaleDistribution": {
              "type": "linear"
            },
            "showPoints": "auto",
            "spanNulls": false,
            "stacking": {
              "group": "A",
              "mode": "none"
            },
            "thresholdsStyle": {
              "mode": "off"
            }
          },
          "decimals": 0,
          "mappings": [],
          "thresholds": {
            "mode": "absolute",
            "steps": [
              {
                "color": "green",
                "value": null
              },
              {
                "color": "red",
                "value": 80
              }
            ]
          }
        },
        "overrides": [
          {
            "matcher": {
              "id": "byFrameRefID",
              "options": "B"
            },
            "properties": [
              {
                "id": "custom.fillBelowTo"
              }
            ]
          }
        ]
      },
      "gridPos": {
        "h": 7,
        "w": 10,
        "x": 14,
        "y": 0
      },
      "id": 8,
      "options": {
        "legend": {
          "calcs": [],
          "displayMode": "list",
          "placement": "bottom",
          "showLegend": false
        },
        "tooltip": {
          "mode": "multi",
          "sort": "none"
        }
      },
      "targets": [
        {
          "datasource": {
            "type": "prometheus",
            "uid": "PBFA97CFB590B2093"
          },
          "editorMode": "code",
          "expr": "count(container_last_seen{name!=\"\",instance=~\"$node\"}) by (container_label_com_docker_compose_project)",
          "legendFormat": "{{container_label_com_docker_compose_project}}",
          "range": true,
          "refId": "A"
        }
      ],
      "title": "Docker containers",
      "type": "timeseries"
    },
    {
      "datasource": {
        "type": "prometheus",
        "uid": "PBFA97CFB590B2093"
      },
      "description": "Used Root FS",
      "fieldConfig": {
        "defaults": {
          "color": {
            "mode": "thresholds"
          },
          "mappings": [
            {
              "options": {
                "match": "null",
                "result": {
                  "text": "N/A"
                }
              },
              "type": "special"
            }
          ],
          "max": 100,
          "min": 0,
          "thresholds": {
            "mode": "absolute",
            "steps": [
              {
                "color": "green",
                "value": null
              },
              {
                "color": "orange",
                "value": 80
              },
              {
                "color": "red",
                "value": 90
              }
            ]
          },
          "unit": "percent"
        },
        "overrides": []
      },
      "gridPos": {
        "h": 7,
        "w": 2,
        "x": 0,
        "y": 7
      },
      "id": 6,
      "options": {
        "minVizHeight": 75,
        "minVizWidth": 75,
        "orientation": "horizontal",
        "reduceOptions": {
          "calcs": [
            "lastNotNull"
          ],
          "fields": "",
          "values": false
        },
        "showThresholdLabels": false,
        "showThresholdMarkers": true,
        "sizing": "auto",
        "text": {}
      },
      "pluginVersion": "10.4.2",
      "targets": [
        {
          "datasource": {
            "type": "prometheus",
            "uid": "PBFA97CFB590B2093"
          },
          "editorMode": "code",
          "expr": "100 - ((node_filesystem_avail_bytes{job=~\"$prom_job\",mountpoint=\"/\",fstype!=\"rootfs\", instance=~\"$node\"} * 100) / node_filesystem_size_bytes{job=~\"$prom_job\",mountpoint=\"/\",fstype!=\"rootfs\", instance=~\"$node\"})",
          "format": "time_series",
          "intervalFactor": 1,
          "legendFormat": "{{instance}}",
          "range": true,
          "refId": "A",
          "step": 900
        }
      ],
      "title": "Root FS Used",
      "type": "gauge"
    },
    {
      "datasource": {
        "type": "prometheus",
        "uid": "PBFA97CFB590B2093"
      },
      "fieldConfig": {
        "defaults": {
          "color": {
            "mode": "palette-classic"
          },
          "custom": {
            "axisBorderShow": false,
            "axisCenteredZero": false,
            "axisColorMode": "text",
            "axisLabel": "",
            "axisPlacement": "auto",
            "barAlignment": 0,
            "drawStyle": "line",
            "fillOpacity": 30,
            "gradientMode": "opacity",
            "hideFrom": {
              "legend": false,
              "tooltip": false,
              "viz": false
            },
            "insertNulls": false,
            "lineInterpolation": "smooth",
            "lineWidth": 1,
            "pointSize": 5,
            "scaleDistribution": {
              "type": "linear"
            },
            "showPoints": "never",
            "spanNulls": false,
            "stacking": {
              "group": "A",
              "mode": "none"
            },
            "thresholdsStyle": {
              "mode": "off"
            }
          },
          "mappings": [],
          "thresholds": {
            "mode": "absolute",
            "steps": [
              {
                "color": "green",
                "value": null
              },
              {
                "color": "red",
                "value": 80
              }
            ]
          },
          "unit": "Bps"
        },
        "overrides": []
      },
      "gridPos": {
        "h": 7,
        "w": 10,
        "x": 2,
        "y": 7
      },
      "id": 3,
      "options": {
        "legend": {
          "calcs": [],
          "displayMode": "list",
          "placement": "bottom",
          "showLegend": true
        },
        "tooltip": {
          "mode": "multi",
          "sort": "none"
        }
      },
      "pluginVersion": "8.1.2",
      "targets": [
        {
          "datasource": {
            "type": "prometheus",
            "uid": "PBFA97CFB590B2093"
          },
          "editorMode": "code",
          "expr": "-sum(rate(node_disk_read_bytes_total{instance=~\"$node\"}[5m])) by (device)",
          "format": "time_series",
          "hide": false,
          "interval": "",
          "intervalFactor": 2,
          "legendFormat": "OUT on /{{device}}",
          "metric": "node_disk_bytes_read",
          "range": true,
          "refId": "A",
          "step": 600
        },
        {
          "datasource": {
            "type": "prometheus",
            "uid": "PBFA97CFB590B2093"
          },
          "editorMode": "code",
          "expr": "sum(rate(node_disk_written_bytes_total{instance=~\"$node\"}[5m])) by (device)",
          "format": "time_series",
          "hide": false,
          "interval": "",
          "intervalFactor": 2,
          "legendFormat": "IN on /{{device}}",
          "metric": "",
          "range": true,
          "refId": "B",
          "step": 600
        }
      ],
      "title": "Disk I/O",
      "type": "timeseries"
    },
    {
      "datasource": {
        "type": "prometheus",
        "uid": "PBFA97CFB590B2093"
      },
      "fieldConfig": {
        "defaults": {
          "color": {
            "mode": "palette-classic"
          },
          "custom": {
            "axisBorderShow": false,
            "axisCenteredZero": false,
            "axisColorMode": "text",
            "axisLabel": "",
            "axisPlacement": "auto",
            "barAlignment": 0,
            "drawStyle": "bars",
            "fillOpacity": 74,
            "gradientMode": "hue",
            "hideFrom": {
              "legend": false,
              "tooltip": false,
              "viz": false
            },
            "insertNulls": false,
            "lineInterpolation": "linear",
            "lineWidth": 0,
            "pointSize": 5,
            "scaleDistribution": {
              "type": "linear"
            },
            "showPoints": "never",
            "spanNulls": false,
            "stacking": {
              "group": "A",
              "mode": "normal"
            },
            "thresholdsStyle": {
              "mode": "off"
            }
          },
          "fieldMinMax": false,
          "mappings": [
            {
              "options": {
                "0": {
                  "index": 1,
                  "text": "DOWN"
                },
                "1": {
                  "index": 0,
                  "text": "UP"
                }
              },
              "type": "value"
            }
          ],
          "noValue": "0",
          "thresholds": {
            "mode": "absolute",
            "steps": [
              {
                "color": "red",
                "value": null
              },
              {
                "color": "green",
                "value": 1
              }
            ]
          }
        },
        "overrides": []
      },
      "gridPos": {
        "h": 10,
        "w": 12,
        "x": 12,
        "y": 7
      },
      "id": 10,
      "options": {
        "legend": {
          "calcs": [],
          "displayMode": "table",
          "placement": "right",
          "showLegend": true
        },
        "tooltip": {
          "mode": "multi",
          "sort": "none"
        }
      },
      "pluginVersion": "10.4.2",
      "targets": [
        {
          "datasource": {
            "type": "prometheus",
            "uid": "PBFA97CFB590B2093"
          },
          "editorMode": "code",
          "exemplar": false,
          "expr": "count(\n    container_last_seen{id=~\"^/system.slice/.*service$\", instance=~\"$node\"}\n    ) by (id, instance)",
          "format": "time_series",
          "instant": false,
          "legendFormat": "{{instance}} - {{id}}",
          "range": true,
          "refId": "A"
        }
      ],
      "title": "Active services",
      "transformations": [
        {
          "id": "renameByRegex",
          "options": {
            "regex": "\\/system\\.slice\\/(.*)\\.service",
            "renamePattern": "$1"
          }
        }
      ],
      "type": "timeseries"
    },
    {
      "datasource": {
        "type": "datasource",
        "uid": "-- Mixed --"
      },
      "fieldConfig": {
        "defaults": {
          "color": {
            "mode": "palette-classic"
          },
          "custom": {
            "axisBorderShow": false,
            "axisCenteredZero": false,
            "axisColorMode": "text",
            "axisLabel": "",
            "axisPlacement": "auto",
            "barAlignment": 0,
            "drawStyle": "line",
            "fillOpacity": 0,
            "gradientMode": "hue",
            "hideFrom": {
              "legend": false,
              "tooltip": false,
              "viz": false
            },
            "insertNulls": false,
            "lineInterpolation": "smooth",
            "lineWidth": 2,
            "pointSize": 5,
            "scaleDistribution": {
              "log": 2,
              "type": "log"
            },
            "showPoints": "auto",
            "spanNulls": false,
            "stacking": {
              "group": "A",
              "mode": "none"
            },
            "thresholdsStyle": {
              "mode": "off"
            }
          },
          "mappings": [],
          "thresholds": {
            "mode": "absolute",
            "steps": [
              {
                "color": "green",
                "value": null
              },
              {
                "color": "red",
                "value": 80
              }
            ]
          }
        },
        "overrides": [
          {
            "matcher": {
              "id": "byFrameRefID",
              "options": "B"
            },
            "properties": [
              {
                "id": "custom.drawStyle",
                "value": "line"
              },
              {
                "id": "color",
                "value": {
                  "fixedColor": "dark-red",
                  "mode": "fixed"
                }
              }
            ]
          },
          {
            "matcher": {
              "id": "byFrameRefID",
              "options": "A"
            },
            "properties": [
              {
                "id": "custom.fillBelowTo",
                "value": "limit"
              }
            ]
          }
        ]
      },
      "gridPos": {
        "h": 8,
        "w": 12,
        "x": 0,
        "y": 14
      },
      "id": 1,
      "options": {
        "legend": {
          "calcs": [],
          "displayMode": "list",
          "placement": "right",
          "showLegend": true
        },
        "tooltip": {
          "maxHeight": 0,
          "mode": "single",
          "sort": "none"
        }
      },
      "targets": [
        {
          "datasource": {
            "type": "loki",
            "uid": "P8E80F9AEF21F6940"
          },
          "editorMode": "code",
          "expr": "sum (\ncount_over_time(\n    {job=\"traefik\"}\n        !=\"prometheus@internal\"\n        !=\"favicon.ico\"\n        !=\"robots.txt\"\n        |=\"RequestAddr\"\n        | json\n            request_method=`RequestMethod`,\n            request_uri=`RequestAddr`,\n            status=`DownstreamStatus`,\n            ip=`ClientHost`\n        | status=~\"$http_status\"\n        | ip != `10.42.0.1`\n        |  __error__=\"\"\n    [5m]\n) > 10\n) by (ip, status)",
          "hide": false,
          "legendFormat": "{{status}} - {{ip}}",
          "queryType": "range",
          "refId": "A"
        },
        {
          "datasource": {
            "type": "prometheus",
            "uid": "PBFA97CFB590B2093"
          },
          "editorMode": "code",
          "exemplar": false,
          "expr": "vector(100)",
          "format": "time_series",
          "hide": false,
          "instant": false,
          "legendFormat": "limit",
          "range": true,
          "refId": "B"
        }
      ],
      "title": "HTTP requests per 5min",
      "type": "timeseries"
    },
    {
      "datasource": {
        "type": "loki",
        "uid": "P8E80F9AEF21F6940"
      },
      "fieldConfig": {
        "defaults": {
          "color": {
            "mode": "palette-classic"
          },
          "custom": {
            "axisBorderShow": false,
            "axisCenteredZero": false,
            "axisColorMode": "text",
            "axisLabel": "",
            "axisPlacement": "auto",
            "barAlignment": -1,
            "drawStyle": "line",
            "fillOpacity": 100,
            "gradientMode": "none",
            "hideFrom": {
              "legend": false,
              "tooltip": false,
              "viz": false
            },
            "insertNulls": false,
            "lineInterpolation": "smooth",
            "lineWidth": 0,
            "pointSize": 5,
            "scaleDistribution": {
              "type": "linear"
            },
            "showPoints": "auto",
            "spanNulls": 1800000,
            "stacking": {
              "group": "A",
              "mode": "none"
            },
            "thresholdsStyle": {
              "mode": "off"
            }
          },
          "fieldMinMax": false,
          "mappings": [],
          "max": 15,
          "thresholds": {
            "mode": "absolute",
            "steps": [
              {
                "color": "green",
                "value": null
              },
              {
                "color": "red",
                "value": 80
              }
            ]
          }
        },
        "overrides": []
      },
      "gridPos": {
        "h": 8,
        "w": 12,
        "x": 12,
        "y": 17
      },
      "id": 2,
      "options": {
        "legend": {
          "calcs": [],
          "displayMode": "table",
          "placement": "right",
          "showLegend": true
        },
        "tooltip": {
          "mode": "single",
          "sort": "none"
        }
      },
      "pluginVersion": "10.4.2",
      "targets": [
        {
          "datasource": {
            "type": "loki",
            "uid": "P8E80F9AEF21F6940"
          },
          "editorMode": "code",
          "expr": "sum by (service_name, instance) (\n    count_over_time (\n        {job=`pam`,service_name!=\"CRON\", instance=~\"$node\"}\n    [5m]\n    )\n)",
          "legendFormat": "{{instance}} - {{service_name}}",
          "queryType": "range",
          "refId": "A"
        }
      ],
      "title": "PAM activity",
      "type": "timeseries"
    },
    {
      "datasource": {
        "type": "prometheus",
        "uid": "PBFA97CFB590B2093"
      },
      "fieldConfig": {
        "defaults": {
          "color": {
            "mode": "palette-classic"
          },
          "custom": {
            "axisBorderShow": false,
            "axisCenteredZero": false,
            "axisColorMode": "text",
            "axisLabel": "packets out (-) / in (+)",
            "axisPlacement": "auto",
            "barAlignment": 0,
            "drawStyle": "line",
            "fillOpacity": 30,
            "gradientMode": "opacity",
            "hideFrom": {
              "legend": false,
              "tooltip": false,
              "viz": false
            },
            "insertNulls": false,
            "lineInterpolation": "smooth",
            "lineWidth": 1,
            "pointSize": 5,
            "scaleDistribution": {
              "type": "linear"
            },
            "showPoints": "never",
            "spanNulls": true,
            "stacking": {
              "group": "A",
              "mode": "none"
            },
            "thresholdsStyle": {
              "mode": "off"
            }
          },
          "links": [],
          "mappings": [],
          "thresholds": {
            "mode": "absolute",
            "steps": [
              {
                "color": "green",
                "value": null
              },
              {
                "color": "red",
                "value": 80
              }
            ]
          },
          "unit": "pps"
        },
        "overrides": []
      },
      "gridPos": {
        "h": 10,
        "w": 12,
        "x": 0,
        "y": 22
      },
      "id": 4,
      "options": {
        "legend": {
          "calcs": [
            "mean",
            "lastNotNull",
            "max",
            "min"
          ],
          "displayMode": "table",
          "placement": "bottom",
          "showLegend": true
        },
        "tooltip": {
          "mode": "multi",
          "sort": "none"
        }
      },
      "pluginVersion": "8.1.2",
      "targets": [
        {
          "datasource": {
            "type": "prometheus",
            "uid": "PBFA97CFB590B2093"
          },
          "editorMode": "code",
          "expr": "irate(node_network_receive_packets_total{instance=~\"$node\", job=~\"$prom_job\"}[5m])",
          "format": "time_series",
          "interval": "",
          "intervalFactor": 2,
          "legendFormat": "{{device}} - Receive",
          "range": true,
          "refId": "A",
          "step": 4
        },
        {
          "datasource": {
            "type": "prometheus",
            "uid": "PBFA97CFB590B2093"
          },
          "editorMode": "code",
          "exemplar": true,
          "expr": "- irate(node_network_transmit_packets_total{instance=~\"$node\", job=~\"$prom_job\"}[5m])",
          "format": "time_series",
          "interval": "",
          "intervalFactor": 2,
          "legendFormat": "{{device}} - Transmit",
          "range": true,
          "refId": "B",
          "step": 4
        }
      ],
      "title": "Network Traffic by Packets",
      "type": "timeseries"
    }
  ],
  "refresh": "",
  "schemaVersion": 39,
  "tags": [
    "security",
    "hostsystem",
    "docker"
  ],
  "templating": {
    "list": [
      {
        "current": {
          "selected": false,
          "text": [
            "All"
          ],
          "value": [
            "$__all"
          ]
        },
        "hide": 0,
        "includeAll": true,
        "label": "HTTP Status",
        "multi": true,
        "name": "http_status",
        "options": [
          {
            "selected": true,
            "text": "All",
            "value": "$__all"
          },
          {
            "selected": false,
            "text": "100",
            "value": "100"
          },
          {
            "selected": false,
            "text": "101",
            "value": "101"
          },
          {
            "selected": false,
            "text": "102",
            "value": "102"
          },
          {
            "selected": false,
            "text": "103",
            "value": "103"
          },
          {
            "selected": false,
            "text": "200",
            "value": "200"
          },
          {
            "selected": false,
            "text": "201",
            "value": "201"
          },
          {
            "selected": false,
            "text": "202",
            "value": "202"
          },
          {
            "selected": false,
            "text": "203",
            "value": "203"
          },
          {
            "selected": false,
            "text": "204",
            "value": "204"
          },
          {
            "selected": false,
            "text": "205",
            "value": "205"
          },
          {
            "selected": false,
            "text": "206",
            "value": "206"
          },
          {
            "selected": false,
            "text": "207",
            "value": "207"
          },
          {
            "selected": false,
            "text": "208",
            "value": "208"
          },
          {
            "selected": false,
            "text": "226",
            "value": "226"
          },
          {
            "selected": false,
            "text": "300",
            "value": "300"
          },
          {
            "selected": false,
            "text": "301",
            "value": "301"
          },
          {
            "selected": false,
            "text": "302",
            "value": "302"
          },
          {
            "selected": false,
            "text": "303",
            "value": "303"
          },
          {
            "selected": false,
            "text": "304",
            "value": "304"
          },
          {
            "selected": false,
            "text": "305",
            "value": "305"
          },
          {
            "selected": false,
            "text": "306",
            "value": "306"
          },
          {
            "selected": false,
            "text": "307",
            "value": "307"
          },
          {
            "selected": false,
            "text": "308",
            "value": "308"
          },
          {
            "selected": false,
            "text": "400",
            "value": "400"
          },
          {
            "selected": false,
            "text": "401",
            "value": "401"
          },
          {
            "selected": false,
            "text": "402",
            "value": "402"
          },
          {
            "selected": false,
            "text": "403",
            "value": "403"
          },
          {
            "selected": false,
            "text": "404",
            "value": "404"
          },
          {
            "selected": false,
            "text": "405",
            "value": "405"
          },
          {
            "selected": false,
            "text": "406",
            "value": "406"
          },
          {
            "selected": false,
            "text": "407",
            "value": "407"
          },
          {
            "selected": false,
            "text": "408",
            "value": "408"
          },
          {
            "selected": false,
            "text": "409",
            "value": "409"
          },
          {
            "selected": false,
            "text": "410",
            "value": "410"
          },
          {
            "selected": false,
            "text": "411",
            "value": "411"
          },
          {
            "selected": false,
            "text": "412",
            "value": "412"
          },
          {
            "selected": false,
            "text": "413",
            "value": "413"
          },
          {
            "selected": false,
            "text": "414",
            "value": "414"
          },
          {
            "selected": false,
            "text": "415",
            "value": "415"
          },
          {
            "selected": false,
            "text": "416",
            "value": "416"
          },
          {
            "selected": false,
            "text": "417",
            "value": "417"
          },
          {
            "selected": false,
            "text": "418",
            "value": "418"
          },
          {
            "selected": false,
            "text": "421",
            "value": "421"
          },
          {
            "selected": false,
            "text": "422",
            "value": "422"
          },
          {
            "selected": false,
            "text": "423",
            "value": "423"
          },
          {
            "selected": false,
            "text": "424",
            "value": "424"
          },
          {
            "selected": false,
            "text": "425",
            "value": "425"
          },
          {
            "selected": false,
            "text": "426",
            "value": "426"
          },
          {
            "selected": false,
            "text": "428",
            "value": "428"
          },
          {
            "selected": false,
            "text": "429",
            "value": "429"
          },
          {
            "selected": false,
            "text": "431",
            "value": "431"
          },
          {
            "selected": false,
            "text": "451",
            "value": "451"
          },
          {
            "selected": false,
            "text": "500",
            "value": "500"
          },
          {
            "selected": false,
            "text": "501",
            "value": "501"
          },
          {
            "selected": false,
            "text": "502",
            "value": "502"
          },
          {
            "selected": false,
            "text": "503",
            "value": "503"
          },
          {
            "selected": false,
            "text": "504",
            "value": "504"
          },
          {
            "selected": false,
            "text": "505",
            "value": "505"
          },
          {
            "selected": false,
            "text": "506",
            "value": "506"
          },
          {
            "selected": false,
            "text": "507",
            "value": "507"
          },
          {
            "selected": false,
            "text": "508",
            "value": "508"
          },
          {
            "selected": false,
            "text": "510",
            "value": "510"
          },
          {
            "selected": false,
            "text": "511",
            "value": "511"
          }
        ],
        "query": "100, 101, 102, 103, 200, 201, 202, 203, 204, 205, 206, 207, 208, 226, 300, 301, 302, 303, 304, 305, 306, 307, 308, 400, 401, 402, 403, 404, 405, 406, 407, 408, 409, 410, 411, 412, 413, 414, 415, 416, 417, 418, 421, 422, 423, 424, 425, 426, 428, 429, 431, 451, 500, 501, 502, 503, 504, 505, 506, 507, 508, 510, 511\n",
        "queryValue": "",
        "skipUrlSync": false,
        "type": "custom"
      },
      {
        "current": {
          "selected": true,
          "text": [
            "newserver",
            "backupserver"
          ],
          "value": [
            "newserver",
            "backupserver"
          ]
        },
        "datasource": {
          "type": "prometheus",
          "uid": "PBFA97CFB590B2093"
        },
        "definition": "label_values(node_uname_info,instance)",
        "hide": 0,
        "includeAll": false,
        "label": "Host",
        "multi": true,
        "name": "node",
        "options": [],
        "query": {
          "qryType": 1,
          "query": "label_values(node_uname_info,instance)",
          "refId": "PrometheusVariableQueryEditor-VariableQuery"
        },
        "refresh": 1,
        "regex": "",
        "skipUrlSync": false,
        "sort": 0,
        "type": "query"
      },
      {
        "current": {
          "selected": false,
          "text": [
            "All"
          ],
          "value": [
            "$__all"
          ]
        },
        "datasource": {
          "type": "prometheus",
          "uid": "PBFA97CFB590B2093"
        },
        "definition": "label_values(job)",
        "hide": 0,
        "includeAll": true,
        "multi": true,
        "name": "prom_job",
        "options": [],
        "query": {
          "qryType": 1,
          "query": "label_values(job)",
          "refId": "PrometheusVariableQueryEditor-VariableQuery"
        },
        "refresh": 1,
        "regex": "",
        "skipUrlSync": false,
        "sort": 0,
        "type": "query"
      },
      {
        "current": {
          "selected": false,
          "text": [
            "All"
          ],
          "value": [
            "$__all"
          ]
        },
        "datasource": {
          "type": "loki",
          "uid": "P8E80F9AEF21F6940"
        },
        "definition": "",
        "hide": 0,
        "includeAll": true,
        "multi": true,
        "name": "loki_job",
        "options": [],
        "query": {
          "label": "job",
          "refId": "LokiVariableQueryEditor-VariableQuery",
          "stream": "",
          "type": 1
        },
        "refresh": 1,
        "regex": "",
        "skipUrlSync": false,
        "sort": 0,
        "type": "query"
      }
    ]
  },
  "time": {
    "from": "now-12h",
    "to": "now"
  },
  "timepicker": {},
  "timezone": "browser",
  "title": "Annomalities",
  "uid": "kpi_overview",
  "version": 2,
  "weekStart": ""
}
